{
  "name": "Firma",
  "number": 12,
  "isMasterData": true,
  "classname": "Company",
  "groups": [{
    "name": "Betriebsdaten",
    "number": 10,
    "classname": "",
    "headFields": [{
      "name": "rechnung",
      "newName": "rechnung",
      "type": "B1",
      "newType": "B",
      "description": "XRechnung",
      "screenVisibility": "Editable",
      "showPriority": "A",
      "changePriority": "A"
    }]
  }]
}