{
  "roots" : [
    {
       "dbnr" : 88,
       "grnr" : 3,
       "identifiers" : [ "such" ],
       "standard" : false,
       "importonce" : true,
       "headfields" : [ "id", "guid", "such", "name", "namebspr", "arb", "datagenfop", "kanal", "laytyp", "kontext", "gentyp", "ausricht", "persist", "aktiv"],
       "tablefields" : [],
       "criteria" : "such==XRECHNUNGXML;aktiv==(Yes)"
     }
  ],
  "dependents" : [
        {
            "dbnr" : 88,
            "grnr" : 6,
            "identifiers" : [ "such" ],
            "standard" : true,
            "headfields" : [ "id", "guid", "such", "name" ],
            "tablefields" : [],
            "criteria" : "such==JASPERREPORTS"
        },
        {
            "dbnr" : 91,
            "grnr" : 1,
            "identifiers" : [ "such" ],
            "standard" : true,
            "headfields" : [ "id", "guid", "such", "name" ],
            "tablefields" : []
        },
        {
            "dbnr" : 65,
            "grnr" : 1,
            "identifiers" : [ "such" ],
            "standard" : true,
            "headfields" : [ "id", "guid", "such", "name", "arb" ],
            "tablefields" : [],
            "criteria" : "such==EVVORGANG;arb==ev"
        }
    ]
}
	