{
  "roots" : [
    {
      "dbnr" : 87,
      "grnr" : 9,
      "identifiers" : [ "such" ],
      "importonce" : true,
      "headfields" : [ "id", "guid", "such", "name", "zielobj", "namebspr", "kontexttyp", "aufrtab", "icontxt", "arb", "aufrbedtyp", "aufrbed", "zielmodus"],
      "tablefields" : [ "zid", "zielaktion", "zielvar", "aufrwtyp", "aufrwert" ],
      "rowimportmode" : "clearBeforeImport",
      "criteria" : "such==XRECHNUNG"
    }
  ],
  "dependents" : [
        {
            "dbnr" : 12,
            "grnr" : 26,
            "identifiers" : [ "such" ],
            "standard" : true,
            "headfields" : [ "id", "guid", "such", "name" ],
            "tablefields" : [],
            "criteria" : "such==V-88-10"
        }
    ]
}
	